Exploring Ethereum Foundation Tip Jar Data
…
Ed Mazurek

3/12/2018

replaced known contract addresses with readable string

parsed out the function calls into fn.name and args[0:10] (needs work).

Makes the data a lot more readable:

etherTip.fns %>%
  filter(is.fn.call, have.abi) %>%
  select(from, to, fn.name) %>% print(n = 10, width = Inf)

## # A tibble: 571 x 3
##                                          from                                         to            fn.name
##                                         <chr>                                      <chr>              <chr>
##  1 0xd1220a0cf47c7b9be7a2e6ba89f429762e7b9adb               Contract: Foundation Tip Jar   changeMembership
##  2 0xd1220a0cf47c7b9be7a2e6ba89f429762e7b9adb               Contract: Foundation Tip Jar   changeMembership
##  3 0xd1220a0cf47c7b9be7a2e6ba89f429762e7b9adb               Contract: Foundation Tip Jar   changeMembership
##  4 0xd1220a0cf47c7b9be7a2e6ba89f429762e7b9adb               Contract: Foundation Tip Jar   changeMembership
##  5 0xd1220a0cf47c7b9be7a2e6ba89f429762e7b9adb               Contract: Foundation Tip Jar      changeUnicorn
##  6 0xd1220a0cf47c7b9be7a2e6ba89f429762e7b9adb               Contract: Foundation Tip Jar newProposalInEther
##  7 0xd1220a0cf47c7b9be7a2e6ba89f429762e7b9adb 0x1f75047233517dcf67970d9e3c3bb385cb647f30  transferOwnership
##  8 0xd1220a0cf47c7b9be7a2e6ba89f429762e7b9adb               Contract: Foundation Tip Jar   changeMembership
##  9 0xd1220a0cf47c7b9be7a2e6ba89f429762e7b9adb               Contract: Foundation Tip Jar      changeUnicorn
## 10 0xd1220a0cf47c7b9be7a2e6ba89f429762e7b9adb 0x41a7820c86f4bea29e6c9239aeb0fbdba12dd790  transferOwnership
## # ... with 561 more rows
…
